…
```r
act_without_NA<-ungroup(act_without_NA) %>% tbl_df
date <- as.Date(act_without_NA$date,"%Y-%m-%d")
date_day<-as.factor(weekdays(date))
act_without_NA<-mutate(act_without_NA,day=date_day,weekday="weekday")

act_without_NA$weekday[format(date,"%u") %in% c(6,7)] <- c("weekend")

act_without_NA
```

```
## # A tibble: 17,568 x 5
##     steps date       interval day   weekday
##     <dbl> <fct>         <int> <fct> <chr>  
##  1 1.72   2012-10-01        0 hétfő weekday
##  2 0.340  2012-10-01        5 hétfő weekday
##  3 0.132  2012-10-01       10 hétfő weekday
##  4 0.151  2012-10-01       15 hétfő weekday
##  5 0.0755 2012-10-01       20 hétfő weekday
##  6 2.09   2012-10-01       25 hétfő weekday
##  7 0.528  2012-10-01       30 hétfő weekday
##  8 0.868  2012-10-01       35 hétfő weekday
##  9 0      2012-10-01       40 hétfő weekday
## 10 1.47   2012-10-01       45 hétfő weekday
## # ... with 17,558 more rows
```
…
